[
  {
    "id": 1,
    "ownerId": 3,
    "coreId": 5,
    "milestoneId": 6,
    "name": "принять дозу",
    "note": "попробовать сразу две дороги а потом лечь спать в ванну со льдом",
    "createdDate": 1448112891624,
    "actions": [
      {"start": 1448112991624},
      {"start": 1448113991624, "failed": true},
      {"start": 1448114991624, "completed": true}
    ],
    "duration": {
      "strategy": "yearly"
    }
  },
  {
    "id": 2,
    "ownerId": 3,
    "coreId": 5,
    "milestoneId": 5,
    "name": "побить шлюху",
    "note": "бить так, чтобы не испортить товарный вид",
    "createdDate": 1448112991624,
    "actions": [
      {"start": 1448112991624},
      {"start": 1448113991624},
      {"start": 1448114991624}
    ],
    "duration": {
      "strategy": "daily"
    }
  },
  {
    "id": 3,
    "ownerId": 1,
    "coreId": 1,
    "milestoneId": 1,
    "name": "побить шлюху",
    "note": "бить так, чтобы не испортить товарный вид",
    "createdDate": 1448112991624,
    "actions": [
      {"start": 1448112991624},
      {"start": 1448113991624, "failed": true},
      {"start": 1448114991624, "completed": true}
    ],
    "duration": {
      "strategy": "weekly"
    }

  },
  {
    "id": 5,
    "ownerId": 4,
    "coreId": 10,
    "milestoneId": 3,
    "name": "тестирование агрегатора",
    "note": "должен быть упорядочен",
    "createdDate": 1,
    "actions": [
      {"start": 0},
      {"start": 3},
      {"start": 4},
      {"start": 5}
    ],
    "duration": {
      "strategy": "weekly"
    }

  },
  {
    "id": 6,
    "ownerId": 4,
    "coreId": 10,
    "milestoneId": 1,
    "name": "тестирование агрегатора",
    "note": "должен быть упорядочен",
    "createdDate": 1,
    "actions": [
      {"start": 1, "completed": true},
      {"start": 7},
      {"start": 8}
    ],
    "duration": {
      "strategy": "weekly"
    }

  },
  {
    "id": 4,
    "ownerId": 4,
    "coreId": 10,
    "milestoneId": 2,
    "name": "тестирование агрегатора",
    "note": "должен быть упорядочен",
    "createdDate": 1,
    "actions": [
      {"start": 1, "failed": true},
      {"start": 2},
      {"start": 4}
    ],
    "duration": {
      "strategy": "weekly"
    }

  }


]
